…
This looks much more reasonable. Let's take a look at the data set.


```r
master_unique %>% arrange(two_stage_id)
```

```
## # A tibble: 8,702 x 64
##    two_stage_id qtr   course course_fullid ta_sect exam1predict exam2predict
##    <chr>        <chr> <chr>  <fct>         <chr>          <dbl>        <dbl>
##  1 chem142_2s_1 A16   142AB  CHEM_142_B_2~ BM                89           55
##  2 chem142_2s_1 A16   142AB  CHEM_142_B_2~ BM                89           55
##  3 chem142_2s_1 A16   142AB  CHEM_142_B_2~ BM                89           55
##  4 chem142_2s_1 A16   142AB  CHEM_142_B_2~ BM                89           55
##  5 chem142_2s_~ A16   142AB  CHEM_142_B_2~ BM                90           70
##  6 chem142_2s_~ A16   142AB  CHEM_142_B_2~ BM                90           70
##  7 chem142_2s_~ A16   142AB  CHEM_142_B_2~ BM                90           70
##  8 chem142_2s_~ A16   142AB  CHEM_142_B_2~ BM                90           70
##  9 chem142_2s_~ A16   142AB  CHEM_142_B_2~ BT               100          103
## 10 chem142_2s_~ A16   142AB  CHEM_142_B_2~ BT               100          103
## # ... with 8,692 more rows, and 57 more variables: finalexampredict <dbl>,
## #   exam1 <dbl>, exam2 <dbl>, finalexam <dbl>, instructorgrade <dbl>,
## #   exam <chr>, ver <chr>, num_items <dbl>, length_min <dbl>,
## #   min_per_ques <dbl>, mastered_topics_initial_kc <dbl>,
## #   time_initial_kc <chr>, satmath <dbl>, satverbal <dbl>, high_sch_gpa <dbl>,
## #   cci_total_1 <dbl>, cci_total_2 <dbl>, project1 <chr>, experiment1 <chr>,
## #   eop_id <chr>, sex_id <chr>, fgn_id <chr>, urm_id <chr>, ethnicity <chr>,
## #   q1_total <dbl>, q1_ver <chr>, q1_ind <dbl>, q1_grp <dbl>, q2_version <chr>,
## #   q2_ind <dbl>, q2_grp <dbl>, q2_total <dbl>, q3_version <chr>, q3_ind <dbl>,
…
